Calculate features based on visual diagnostic plots — feature_visualDiagnostic_all • scored
…
    Examples

data("K013sA1","K013sA2")

compData_cellBased <- comparison_cellBased(reference = K013sA1,
                                           target = K013sA2,
                                           thetas = c(-3,0,3))

compData_cellBased %>%
  dplyr::group_by(cellIndex,direction) %>%
  feature_visualDiagnostic_all()
#> # A tibble: 78 x 8
#> # Groups:   cellIndex [39]
#>    cellIndex direction           neigh~1 neigh~2 neigh~3 neigh~4 diffe~5 diffe~6
#>    <chr>     <chr>                 <dbl>   <dbl>   <dbl>   <dbl>   <dbl>   <dbl>
#>  1 1, 2      reference vs. targ~    34.9    2.55    81.9    6.41   0.363  0.106 
#>  2 1, 2      target vs. referen~    83.7   36.0    126.    24.3    0.347  0.0571
#>  3 1, 3      reference vs. targ~    92.3   78.1    130.     8.79   0.282  0.0326
#>  4 1, 3      target vs. referen~    36.0    1.44   144.     8.20   0.199  0.0450
#>  5 1, 4      reference vs. targ~    64.0   16.0    123.    17.4    0.541  0.0249
#>  6 1, 4      target vs. referen~    51.5   10.5    108.    21.4    0.340  0.194 
#>  7 1, 5      reference vs. targ~    38.9    7.36    97.6    9.05   0.144  0.0830
#>  8 1, 5      target vs. referen~   102.    30.2    114.    NA      0.622  0.153 
#>  9 1, 6      reference vs. targ~    77.3   18.5    129.    13.9    0.494  0.0714
#> 10 1, 6      target vs. referen~    58.0   10.0    101.    10.2    0.204  0.126 
#> # ... with 68 more rows, and abbreviated variable names
#> #   1: neighborhoodSizeAve_ave, 2: neighborhoodSizeAve_sd,
#> #   3: neighborhoodSizeSD_ave, 4: neighborhoodSizeSD_sd, 5: differenceCor_ave,
#> #   6: differenceCor_sd
#> # i Use `print(n = ...)` to see more rows
…
